{
	"info": {
		"_postman_id": "06d386f6-5608-4d0f-a6a6-3753ed8dc68e",
		"name": "Recuperacion API",
		"schema": "https://schema.getpostman.com/json/collection/v2.1.0/collection.json"
	},
	"item": [
		{
			"name": "Autenticación",
			"item": [
				{
					"name": "Iniciar Sesión",
					"request": {
						"method": "POST",
						"header": [],
						"body": {
							"mode": "formdata",
							"formdata": [
								{
									"key": "email",
									"value": "test@trying.net",
									"type": "text"
								},
								{
									"key": "password",
									"value": "secret",
									"type": "text"
								}
							]
						},
						"url": {
							"raw": "http://localhost:8000/api/auth/login",
							"protocol": "http",
							"host": [
								"localhost"
							],
							"port": "8000",
							"path": [
								"api",
								"auth",
								"login"
							]
						},
						"description": "Permite iniciar sesión al proporcionar una combinación válida email/contraseña. Al ser exitoso responde con el token de acceso y el usuario asociado"
					},
					"response": [
						{
							"name": "Iniciar Sesión",
							"originalRequest": {
								"method": "POST",
								"header": [],
								"body": {
									"mode": "formdata",
									"formdata": [
										{
											"key": "email",
											"value": "test@trying.net",
											"type": "text"
										},
										{
											"key": "password",
											"value": "secret",
											"type": "text"
										}
									]
								},
								"url": {
									"raw": "http://localhost:8000/api/auth/login",
									"protocol": "http",
									"host": [
										"localhost"
									],
									"port": "8000",
									"path": [
										"api",
										"auth",
										"login"
									]
								}
							},
							"status": "OK",
							"code": 200,
							"_postman_previewlanguage": "json",
							"header": [
								{
									"key": "Host",
									"value": "localhost:8000"
								},
								{
									"key": "Date",
									"value": "Wed, 25 Sep 2019 02:24:18 +0000"
								},
								{
									"key": "Date",
									"value": "Wed, 25 Sep 2019 02:24:18 GMT"
								},
								{
									"key": "Connection",
									"value": "close"
								},
								{
									"key": "X-Powered-By",
									"value": "PHP/7.2.14-1+ubuntu16.04.1+deb.sury.org+1"
								},
								{
									"key": "Cache-Control",
									"value": "no-cache, private"
								},
								{
									"key": "Content-Type",
									"value": "application/json"
								},
								{
									"key": "X-RateLimit-Limit",
									"value": "60"
								},
								{
									"key": "X-RateLimit-Remaining",
									"value": "59"
								}
							],
							"cookie": [],
							"body": "{\n    \"access_token\": \"eyJ0eXAiOiJKV1QiLCJhbGciOiJIUzI1NiJ9.eyJpc3MiOiJodHRwOlwvXC9sb2NhbGhvc3Q6ODAwMFwvYXBpXC9hdXRoXC9sb2dpbiIsImlhdCI6MTU2OTM3ODI1OCwiZXhwIjoxNTY5MzgxODU4LCJuYmYiOjE1NjkzNzgyNTgsImp0aSI6Im90QVBmOFJJWVhIY2ZPWlIiLCJzdWIiOjEsInBydiI6Ijg3ZTBhZjFlZjlmZDE1ODEyZmRlYzk3MTUzYTE0ZTBiMDQ3NTQ2YWEifQ.mbHm98XIRwN_yq7hC_aRmC03Jutm0ujH7NAPAs2sDRM\",\n    \"token_type\": \"bearer\",\n    \"expires_in\": 3600,\n    \"user\": {\n        \"id\": 1,\n        \"name\": \"Pepe\",\n        \"email\": \"test@trying.net\",\n        \"created_at\": \"2019-09-24 22:22:38\",\n        \"updated_at\": \"2019-09-25 02:14:15\"\n    }\n}"
						}
					]
				},
				{
					"name": "Cerrar Sesión",
					"request": {
						"method": "POST",
						"header": [
							{
								"key": "Authorization",
								"value": "Bearer tu_token",
								"description": "Reemplazar tu_token por el token obtenido al iniciar sesión",
								"type": "text"
							}
						],
						"body": {
							"mode": "formdata",
							"formdata": []
						},
						"url": {
							"raw": "http://localhost:8000/api/auth/logout",
							"protocol": "http",
							"host": [
								"localhost"
							],
							"port": "8000",
							"path": [
								"api",
								"auth",
								"logout"
							]
						},
						"description": "Se usa para cerrar una sesión actualmente abierta, requiere el token del usuario actual en los headers de la petición"
					},
					"response": [
						{
							"name": "Cerrar Sesión",
							"originalRequest": {
								"method": "POST",
								"header": [
									{
										"key": "Authorization",
										"value": "Bearer tu_token",
										"description": "Reemplazar tu_token por el token obtenido al iniciar sesión",
										"type": "text"
									}
								],
								"body": {
									"mode": "formdata",
									"formdata": []
								},
								"url": {
									"raw": "http://localhost:8000/api/auth/logout",
									"protocol": "http",
									"host": [
										"localhost"
									],
									"port": "8000",
									"path": [
										"api",
										"auth",
										"logout"
									]
								}
							},
							"status": "OK",
							"code": 200,
							"_postman_previewlanguage": "json",
							"header": [
								{
									"key": "Host",
									"value": "localhost:8000"
								},
								{
									"key": "Date",
									"value": "Wed, 25 Sep 2019 01:24:00 +0000"
								},
								{
									"key": "Date",
									"value": "Wed, 25 Sep 2019 01:24:00 GMT"
								},
								{
									"key": "Connection",
									"value": "close"
								},
								{
									"key": "X-Powered-By",
									"value": "PHP/7.2.14-1+ubuntu16.04.1+deb.sury.org+1"
								},
								{
									"key": "Cache-Control",
									"value": "no-cache, private"
								},
								{
									"key": "Content-Type",
									"value": "application/json"
								},
								{
									"key": "X-RateLimit-Limit",
									"value": "60"
								},
								{
									"key": "X-RateLimit-Remaining",
									"value": "59"
								}
							],
							"cookie": [],
							"body": "{\n    \"message\": \"Successfully logged out\"\n}"
						}
					]
				},
				{
					"name": "Refrescar Token",
					"request": {
						"method": "POST",
						"header": [
							{
								"key": "Authorization",
								"value": "Bearer tu_token",
								"description": "Reemplazar tu_token por el obtenido al iniciar sesión",
								"type": "text"
							}
						],
						"body": {
							"mode": "formdata",
							"formdata": []
						},
						"url": {
							"raw": "http://localhost:8000/api/auth/refresh",
							"protocol": "http",
							"host": [
								"localhost"
							],
							"port": "8000",
							"path": [
								"api",
								"auth",
								"refresh"
							]
						},
						"description": "Permite generar un token nuevo cuando el actual está cerca de expirar sin necesidad de iniciar sesión nuevamente. Requiere el token actual en los headers"
					},
					"response": [
						{
							"name": "Refrescar Token",
							"originalRequest": {
								"method": "POST",
								"header": [
									{
										"key": "Authorization",
										"value": "Bearer tu_token",
										"description": "Reemplazar tu_token por el obtenido al iniciar sesión",
										"type": "text"
									}
								],
								"url": {
									"raw": "http://localhost:8000/api/auth/refresh",
									"protocol": "http",
									"host": [
										"localhost"
									],
									"port": "8000",
									"path": [
										"api",
										"auth",
										"refresh"
									]
								}
							},
							"status": "OK",
							"code": 200,
							"_postman_previewlanguage": "json",
							"header": [
								{
									"key": "Host",
									"value": "localhost:8000"
								},
								{
									"key": "Date",
									"value": "Wed, 25 Sep 2019 01:29:31 +0000"
								},
								{
									"key": "Date",
									"value": "Wed, 25 Sep 2019 01:29:31 GMT"
								},
								{
									"key": "Connection",
									"value": "close"
								},
								{
									"key": "X-Powered-By",
									"value": "PHP/7.2.14-1+ubuntu16.04.1+deb.sury.org+1"
								},
								{
									"key": "Cache-Control",
									"value": "no-cache, private"
								},
								{
									"key": "Content-Type",
									"value": "application/json"
								},
								{
									"key": "X-RateLimit-Limit",
									"value": "60"
								},
								{
									"key": "X-RateLimit-Remaining",
									"value": "57"
								}
							],
							"cookie": [],
							"body": "{\n    \"access_token\": \"eyJ0eXAiOiJKV1QiLCJhbGciOiJIUzI1NiJ9.eyJpc3MiOiJodHRwOlwvXC9sb2NhbGhvc3Q6ODAwMFwvYXBpXC9hdXRoXC9yZWZyZXNoIiwiaWF0IjoxNTY5Mzc0Njc4LCJleHAiOjE1NjkzNzg1NzEsIm5iZiI6MTU2OTM3NDk3MSwianRpIjoiTEtUU01ZdVoyWjB3enlTbyIsInN1YiI6MSwicHJ2IjoiODdlMGFmMWVmOWZkMTU4MTJmZGVjOTcxNTNhMTRlMGIwNDc1NDZhYSJ9.F0t6Oy9Td1uanxribgD1xRNBG8AsIylw9saqgI3LHqI\",\n    \"token_type\": \"bearer\",\n    \"expires_in\": 3600,\n    \"user\": {\n        \"id\": 1,\n        \"name\": \"Administrator\",\n        \"email\": \"admin@admin.com\",\n        \"created_at\": \"2019-09-24 22:22:38\",\n        \"updated_at\": \"2019-09-24 22:22:38\"\n    }\n}"
						}
					]
				}
			],
			"protocolProfileBehavior": {}
		},
		{
			"name": "Usuarios",
			"item": [
				{
					"name": "Registrar",
					"request": {
						"method": "POST",
						"header": [],
						"body": {
							"mode": "formdata",
							"formdata": [
								{
									"key": "name",
									"value": "Jose",
									"type": "text"
								},
								{
									"key": "email",
									"value": "test@trying.net",
									"type": "text"
								},
								{
									"key": "password",
									"value": "secret",
									"type": "text"
								}
							]
						},
						"url": {
							"raw": "http://localhost:8000/api/register",
							"protocol": "http",
							"host": [
								"localhost"
							],
							"port": "8000",
							"path": [
								"api",
								"register"
							]
						},
						"description": "Se usa para añadir nuevos usuarios, requiere nombre, email y contraseña como parte del body del request. Al tener éxito responde con el usuario creado, en caso contrario responde con el mensaje de error concerniente"
					},
					"response": [
						{
							"name": "Register",
							"originalRequest": {
								"method": "POST",
								"header": [],
								"body": {
									"mode": "formdata",
									"formdata": [
										{
											"key": "name",
											"value": "Jose",
											"type": "text"
										},
										{
											"key": "email",
											"value": "test@trying.net",
											"type": "text"
										},
										{
											"key": "password",
											"value": "secret",
											"type": "text"
										}
									]
								},
								"url": {
									"raw": "http://localhost:8000/api/register",
									"protocol": "http",
									"host": [
										"localhost"
									],
									"port": "8000",
									"path": [
										"api",
										"register"
									]
								}
							},
							"status": "OK",
							"code": 200,
							"_postman_previewlanguage": "json",
							"header": [
								{
									"key": "Host",
									"value": "localhost:8000"
								},
								{
									"key": "Date",
									"value": "Wed, 25 Sep 2019 01:42:38 +0000"
								},
								{
									"key": "Date",
									"value": "Wed, 25 Sep 2019 01:42:38 GMT"
								},
								{
									"key": "Connection",
									"value": "close"
								},
								{
									"key": "X-Powered-By",
									"value": "PHP/7.2.14-1+ubuntu16.04.1+deb.sury.org+1"
								},
								{
									"key": "Cache-Control",
									"value": "no-cache, private"
								},
								{
									"key": "Content-Type",
									"value": "application/json"
								},
								{
									"key": "X-RateLimit-Limit",
									"value": "60"
								},
								{
									"key": "X-RateLimit-Remaining",
									"value": "57"
								}
							],
							"cookie": [],
							"body": "{\n    \"user\": {\n        \"name\": \"Jose\",\n        \"email\": \"test@trying.net\",\n        \"updated_at\": \"2019-09-25 01:42:38\",\n        \"created_at\": \"2019-09-25 01:42:38\",\n        \"id\": 3\n    }\n}"
						}
					]
				},
				{
					"name": "Consultar",
					"request": {
						"method": "GET",
						"header": [],
						"url": {
							"raw": "http://localhost:8000/api/users/\"id\"",
							"protocol": "http",
							"host": [
								"localhost"
							],
							"port": "8000",
							"path": [
								"api",
								"users",
								"\"id\""
							]
						},
						"description": "Permite consultar un usuario en específico. Reemplazar \"id\" en la URL por el id del usuario que se desea consultar. De tener éxito responde con el usuario, o si el id especificado es inválido el estado de la respuesta será error 404"
					},
					"response": [
						{
							"name": "Consultar",
							"originalRequest": {
								"method": "GET",
								"header": [],
								"url": {
									"raw": "http://localhost:8000/api/users/1",
									"protocol": "http",
									"host": [
										"localhost"
									],
									"port": "8000",
									"path": [
										"api",
										"users",
										"1"
									]
								}
							},
							"status": "OK",
							"code": 200,
							"_postman_previewlanguage": "json",
							"header": [
								{
									"key": "Host",
									"value": "localhost:8000"
								},
								{
									"key": "Date",
									"value": "Wed, 25 Sep 2019 19:30:50 +0000"
								},
								{
									"key": "Date",
									"value": "Wed, 25 Sep 2019 19:30:50 GMT"
								},
								{
									"key": "Connection",
									"value": "close"
								},
								{
									"key": "X-Powered-By",
									"value": "PHP/7.2.14-1+ubuntu16.04.1+deb.sury.org+1"
								},
								{
									"key": "Cache-Control",
									"value": "no-cache, private"
								},
								{
									"key": "Content-Type",
									"value": "application/json"
								},
								{
									"key": "X-RateLimit-Limit",
									"value": "60"
								},
								{
									"key": "X-RateLimit-Remaining",
									"value": "59"
								}
							],
							"cookie": [],
							"body": "{\n    \"user\": {\n        \"id\": 1,\n        \"name\": \"Pepe\",\n        \"email\": \"test@trying.net\",\n        \"created_at\": \"2019-09-24 22:22:38\",\n        \"updated_at\": \"2019-09-25 02:14:15\"\n    }\n}"
						}
					]
				},
				{
					"name": "Consultar todos",
					"request": {
						"method": "GET",
						"header": [],
						"url": {
							"raw": "http://localhost:8000/api/users",
							"protocol": "http",
							"host": [
								"localhost"
							],
							"port": "8000",
							"path": [
								"api",
								"users"
							]
						}
					},
					"response": []
				},
				{
					"name": "Borrar",
					"request": {
						"method": "DELETE",
						"header": [],
						"url": {
							"raw": "http://localhost:8000/api/delete/\"id\"",
							"protocol": "http",
							"host": [
								"localhost"
							],
							"port": "8000",
							"path": [
								"api",
								"delete",
								"\"id\""
							]
						},
						"description": "Permite borrar un usuario en específico. Reemplazar \"id\" en la URL por el id del usuario que desea eliminar. De tener éxito responde con el usuario eliminado, o si el id especificado es inválido el estado de la respuesta será error 404"
					},
					"response": [
						{
							"name": "Borrar",
							"originalRequest": {
								"method": "DELETE",
								"header": [],
								"url": {
									"raw": "http://localhost:8000/api/delete/2",
									"protocol": "http",
									"host": [
										"localhost"
									],
									"port": "8000",
									"path": [
										"api",
										"delete",
										"2"
									]
								}
							},
							"status": "OK",
							"code": 200,
							"_postman_previewlanguage": "json",
							"header": [
								{
									"key": "Host",
									"value": "localhost:8000"
								},
								{
									"key": "Date",
									"value": "Wed, 25 Sep 2019 19:34:17 +0000"
								},
								{
									"key": "Date",
									"value": "Wed, 25 Sep 2019 19:34:17 GMT"
								},
								{
									"key": "Connection",
									"value": "close"
								},
								{
									"key": "X-Powered-By",
									"value": "PHP/7.2.14-1+ubuntu16.04.1+deb.sury.org+1"
								},
								{
									"key": "Cache-Control",
									"value": "no-cache, private"
								},
								{
									"key": "Content-Type",
									"value": "application/json"
								},
								{
									"key": "X-RateLimit-Limit",
									"value": "60"
								},
								{
									"key": "X-RateLimit-Remaining",
									"value": "59"
								}
							],
							"cookie": [],
							"body": "{\n    \"user\": {\n        \"id\": 2,\n        \"name\": \"Juan\",\n        \"email\": \"test@try.net\",\n        \"created_at\": \"2019-09-25 01:41:55\",\n        \"updated_at\": \"2019-09-25 01:41:55\"\n    }\n}"
						}
					]
				},
				{
					"name": "Actualizar",
					"request": {
						"method": "PUT",
						"header": [
							{
								"description": "Reemplazar tu_token por el obtenido al iniciar sesión",
								"key": "Authorization",
								"type": "text",
								"value": "Bearer tu_token"
							},
							{
								"key": "Content-Type",
								"name": "Content-Type",
								"value": "application/x-www-form-urlencoded",
								"description": "Necesario que coincida con el tipo del body",
								"type": "text"
							}
						],
						"body": {
							"mode": "urlencoded",
							"urlencoded": [
								{
									"key": "name",
									"value": "Pedro",
									"type": "text"
								},
								{
									"key": "email",
									"value": "test@trying.net",
									"type": "text"
								},
								{
									"key": "password",
									"value": "secret",
									"type": "text"
								}
							]
						},
						"url": {
							"raw": "http://localhost:8000/api/update",
							"protocol": "http",
							"host": [
								"localhost"
							],
							"port": "8000",
							"path": [
								"api",
								"update"
							]
						},
						"description": "Permite editar al usuario autenticado actualmente, requiere el token de acceso como parte de los headers. Responde con el nuevo estado del usuario de tener éxito, o en su defecto el mensaje de error concerniente. IMPORTANTE: Al ser un request tipo PUT el body debe ser tipo x-www-form-urlencoded (revisar body y headers) por limitaciones propias de laravel."
					},
					"response": [
						{
							"name": "Actualizar",
							"originalRequest": {
								"method": "PUT",
								"header": [
									{
										"key": "Accept",
										"type": "text",
										"value": "application/json"
									},
									{
										"key": "Authorization",
										"type": "text",
										"value": "Bearer eyJ0eXAiOiJKV1QiLCJhbGciOiJIUzI1NiJ9.eyJpc3MiOiJodHRwOlwvXC9sb2NhbGhvc3Q6ODAwMFwvYXBpXC9hdXRoXC9sb2dpbiIsImlhdCI6MTU2OTQ0MDc4MywiZXhwIjoxNTY5NDQ0MzgzLCJuYmYiOjE1Njk0NDA3ODMsImp0aSI6IlU0ajBXSEpFM1RBWWZ3NE8iLCJzdWIiOjEsInBydiI6Ijg3ZTBhZjFlZjlmZDE1ODEyZmRlYzk3MTUzYTE0ZTBiMDQ3NTQ2YWEifQ.FzyXuePCIeqUTofx8tyfhfStOBs-izgLN_JygPnHXCY"
									},
									{
										"key": "Content-Type",
										"name": "Content-Type",
										"value": "application/x-www-form-urlencoded",
										"type": "text"
									}
								],
								"body": {
									"mode": "urlencoded",
									"urlencoded": [
										{
											"key": "name",
											"value": "Pedro",
											"type": "text"
										},
										{
											"key": "email",
											"value": "test@trying.net",
											"type": "text"
										},
										{
											"key": "password",
											"value": "secret",
											"type": "text"
										}
									]
								},
								"url": {
									"raw": "http://localhost:8000/api/update",
									"protocol": "http",
									"host": [
										"localhost"
									],
									"port": "8000",
									"path": [
										"api",
										"update"
									]
								}
							},
							"status": "OK",
							"code": 200,
							"_postman_previewlanguage": "json",
							"header": [
								{
									"key": "Host",
									"value": "localhost:8000"
								},
								{
									"key": "Date",
									"value": "Wed, 25 Sep 2019 19:47:10 +0000"
								},
								{
									"key": "Date",
									"value": "Wed, 25 Sep 2019 19:47:10 GMT"
								},
								{
									"key": "Connection",
									"value": "close"
								},
								{
									"key": "X-Powered-By",
									"value": "PHP/7.2.14-1+ubuntu16.04.1+deb.sury.org+1"
								},
								{
									"key": "Cache-Control",
									"value": "no-cache, private"
								},
								{
									"key": "Content-Type",
									"value": "application/json"
								},
								{
									"key": "X-RateLimit-Limit",
									"value": "60"
								},
								{
									"key": "X-RateLimit-Remaining",
									"value": "59"
								}
							],
							"cookie": [],
							"body": "{\n    \"user\": {\n        \"id\": 1,\n        \"name\": \"Pedro\",\n        \"email\": \"test@trying.net\",\n        \"created_at\": \"2019-09-24 22:22:38\",\n        \"updated_at\": \"2019-09-25 19:47:10\"\n    }\n}"
						}
					]
				}
			],
			"protocolProfileBehavior": {}
		}
	]
}